inst_name	tot_funds	country_name	tot_c_amount
ModernaTX, Inc.	2.479895E9	United States	1.6792529052E10
AstraZeneca	2.10965E9	United States	1.6792529052E10
Sanofi Pasteur and GSK	2.07277534E9	United States	1.6792529052E10
Pfizer Inc.	1.95E9	United States	1.6792529052E10
Novavax Inc.	1.600435E9	United States	1.6792529052E10
Janssen Pharmaceuticals, Inc.	1.4578871E9	United States	1.6792529052E10
Jeonbuk National University	1.0E9	Korea, Democratic People's Republic of	1.607E9
Jeonbuk National University	1.0E9	Korea, Republic of	1.607E9
Regeneron Pharmaceuticals, Inc	7.0321122E8	United States	1.6792529052E10
CIADM at Emergent Biosolutions	6.627818E8	United States	1.6792529052E10
Eli Lilly and Company	3.75E8	United States	1.6792529052E10
Merck Sharp Dohme Corp.	3.555623E8	United States	1.6792529052E10
The Texas A&M University System	2.73103183E8	United States	1.6792529052E10
Hologic, Inc.	2.65469769E8	United States	1.6792529052E10
Corning Pharmaceutical Technologies, Corning Incorporated	2.04E8	United States	1.6792529052E10
Chosun University	2.0E8	Korea, Democratic People's Republic of	1.607E9
Kyungpook National University	2.0E8	Korea, Democratic People's Republic of	1.607E9
Chosun University	2.0E8	Korea, Republic of	1.607E9
Kyungpook National University	2.0E8	Korea, Republic of	1.607E9
Charité Universitätsmedizin Berlin	1.631874955E8	Germany	3.323762956E8
Janssen Research & Development, LLC	1.523121E8	United States	1.6792529052E10
SiO2	1.43E8	United States	1.6792529052E10
America's Blood Centers	1.0970161E8	United States	1.6792529052E10
Korea University	1.07E8	Korea, Democratic People's Republic of	1.607E9
Korea University	1.07E8	Korea, Republic of	1.607E9
Ology Bioservices, Inc.	1.063E8	United States	1.6792529052E10
Konkuk University	1.0E8	Korea, Democratic People's Republic of	1.607E9
Konkuk University	1.0E8	Korea, Republic of	1.607E9
University of Oxford	9.4574671E7	United Kingdom	1.92639203E8
University of North Carolina, Chapel Hill	9.1322135E7	United States	1.6792529052E10
CureVac AG	8.83E7	Germany	3.323762956E8
Emory University	8.4179889E7	United States	1.6792529052E10
Technical Resources International, Inc. (TRI)	6.982432E7	United States	1.6792529052E10
American Red Cross	6.913894E7	United States	1.6792529052E10
Quantum Leap Healthcare Collaborative	6.65499E7	United States	1.6792529052E10
Vanderbilt University	6.4824555E7	United States	1.6792529052E10
Retractable Technologies, Inc	5.366429E7	United States	1.6792529052E10
SAb Biotherapeutics, Inc.	5.3345253E7	United States	1.6792529052E10
Thermo Fisher Scientific	4.91894E7	United States	1.6792529052E10
Genentech USA, Inc.	4.77E7	United States	1.6792529052E10
Imperial College London	4.6757599E7	United Kingdom	1.92639203E8
University of Pittsburgh, Pittsburgh	4.2938806E7	United States	1.6792529052E10
Becton, Dickinson and Company	4.230323E7	United States	1.6792529052E10
Siemens Healthineers	4.020455E7	United States	1.6792529052E10
Ortho Clinical Diagnostics	3.9906E7	United States	1.6792529052E10
Merck and IAVI	3.803357E7	United States	1.6792529052E10
Philips North America	3.489303E7	United States	1.6792529052E10
Cytiva	3.119E7	United States	1.6792529052E10
Baylor College of Medicine	3.1032505E7	United States	1.6792529052E10
University of Queensland	2.5692985E7	Australia	4.3886252E7
University of Melbourne	2.3942701E7	Australia	4.3886252E7
Controlant Global	2.26E7	United States	1.6792529052E10
Eberhard Karls Universität Tübingen	2.16341155E7	Germany	3.323762956E8
University of Washington, Seattle	2.1473537E7	United States	1.6792529052E10
University of British Columbia	2.0983604E7	Canada	1.15603352E8
Smiths Medical, Inc.	2.066377E7	United States	1.6792529052E10
University of Pennsylvania	2.0112697E7	United States	1.6792529052E10
University of Maryland, Baltimore	1.8335581E7	United States	1.6792529052E10
Medizinische Hochschule Hannover	1.6447298E7	Germany	3.323762956E8
Erasmus MC	1.58555494E7	Netherlands	2.83365379E7
St. Louis University	1.5385704E7	United States	1.6792529052E10
Icahn School of Medicine at Mt. Sinai	1.5349528E7	United States	1.6792529052E10
Harvard University	1.4858771E7	United States	1.6792529052E10
McMaster University	1.4792694E7	Canada	1.15603352E8
University of Cincinnati	1.403703E7	United States	1.6792529052E10
University of Virginia, Charlottesville	1.3917832E7	United States	1.6792529052E10
Cue Health Inc.	1.369237E7	United States	1.6792529052E10
InBios International, Inc.	1.3449998E7	United States	1.6792529052E10
Chembio	1.3319801E7	United States	1.6792529052E10
Duke University	1.3150648E7	United States	1.6792529052E10
University of Alberta	1.3102277E7	Canada	1.15603352E8
Mesa Biotech, Inc.	1.29916E7	United States	1.6792529052E10
Justus-Liebig-Universität Gießen	1.264132E7	Germany	3.323762956E8
Grifols Shared Services North America, Inc. (Grifols)	1.255176E7	United States	1.6792529052E10
University of Toronto	1.1860226E7	Canada	1.15603352E8
Fraunhofer-Institut für Molekularbiologie und Angewandte Ökologie	1.1519152E7	Germany	3.323762956E8
UMC Leiden	1.14056295E7	Netherlands	2.83365379E7
Albert-Ludwigs-Universität Freiburg	1.1284472E7	Germany	3.323762956E8
Helmholtz Zentrum München Deutsches Forschungszentrum für Gesundheit und Umwelt	1.1191465E7	Germany	3.323762956E8
Oregon Health and Science University	1.0675639E7	United States	1.6792529052E10
New York University	1.0321866E7	United States	1.6792529052E10
London School of Hygiene and Tropical Medicine	9.515E6	United Kingdom	1.92639203E8
Forschungszentrum Jülich	9.272976E6	Germany	3.323762956E8
Universiteit Utrecht	9.040663E6	Netherlands	2.83365379E7
Medical College of Wisconsin	8.800515E6	United States	1.6792529052E10
EU-OPENSCREEN ERIC	8.790726E6	Germany	3.323762956E8
European Molecular Biology Laboratory	8.790726E6	Germany	3.323762956E8
Infrafrontier GmbH	8.790726E6	Germany	3.323762956E8
University of Melbourne Peter Doherty Institute	8.5E6	Australia	4.3886252E7
McGill University	8.369603E6	Canada	1.15603352E8
Harbour Antibodies BV	8.041288E6	Netherlands	2.83365379E7
Stichting Wageningen Research	7.97827E6	Netherlands	2.83365379E7
Helmholtz Zentrum für Infektionsforschung	7.593087E6	Germany	3.323762956E8
Massachussetts General Hospital	7.47461E6	United States	1.6792529052E10
Luminex Corporation	7.358213E6	United States	1.6792529052E10
University of Manitoba	7.285946E6	Canada	1.15603352E8
Cornell University	7.151642E6	United States	1.6792529052E10
Johns Hopkins University	7.133461E6	United States	1.6792529052E10
Public Health England	6.891458E6	United Kingdom	1.92639203E8
Centre Hospitalier Universitaire de Québec (CHUQ) - Université Laval	6.837467E6	Canada	1.15603352E8
Kaiser Permanente Washington Health Research Institute, Seattle	6.715241E6	United States	1.6792529052E10
The Broad Institute	6.6E6	United States	1.6792529052E10
Laval University	6.115943E6	Canada	1.15603352E8
University of Minnesota, Twin Cities	6.110404E6	United States	1.6792529052E10
University of Rochester Medical Centre (URMC)	5.974481E6	United States	1.6792529052E10
Artemis BioSupport B.V.	5.566584E6	Netherlands	2.83365379E7
Dyadic Nederland BV	5.566584E6	Netherlands	2.83365379E7
Viroclinics Biosciences BV	5.566584E6	Netherlands	2.83365379E7
Universität zu Lübeck	5.249369E6	Germany	3.323762956E8
Medical Research Institute of New Zealand	5.2295E6	New Zealand	7.864683E6
Stiftung Tierärztliche Hochschule Hannover	5.009369E6	Germany	3.323762956E8
University of Edinburgh	4.983885E6	United Kingdom	1.92639203E8
University of Bern	4.95631E6	Switzerland	1.77839039E7
Boston University	4.919678E6	United States	1.6792529052E10
University of Calgary	4.828366E6	Canada	1.15603352E8
Johann Wolfgang Goethe-Universität Frankfurt am Main	4.815063E6	Germany	3.323762956E8
Eatris ERIC	4.722898E6	Netherlands	2.83365379E7
Cepheid	4.7E6	United States	1.6792529052E10
University of Ottawa	4.442018E6	Canada	1.15603352E8
Monash University	4.413145E6	Australia	4.3886252E7
University of Leicester	4.266342E6	United Kingdom	1.92639203E8
Hvidovre Hospital	4.263156E6	Denmark	1.30287143E7
University of Iowa	4.122016E6	United States	1.6792529052E10
Statens Serums Institut	4.0251505E6	Denmark	1.30287143E7
Amsterdam MC, locatie AMC	3.985764E6	Netherlands	2.83365379E7
Danmarks Tekniske Universitet	3.9216757E6	Denmark	1.30287143E7
Cytovale Inc.	3.833363E6	United States	1.6792529052E10
University of Cambridge	3.722492E6	United Kingdom	1.92639203E8
Universität Hamburg	3.679369E6	Germany	3.323762956E8
University of Zurich	3.644125E6	Switzerland	1.77839039E7
Katholieke Universiteit Leuven	3.6214495E6	Belgium	6.8700195E6
Universitair Ziekenhuis Gent	3.600437E6	Belgium	6.8700195E6
Amsterdam MC, locatie VUmc	3.475073E6	Netherlands	2.83365379E7
Karolinska Institutet	3.46428E6	Sweden	6.954257E6
Rijksinstitut voor Volksgezondheid en Milieu	3.416141E6	Netherlands	2.83365379E7
UC San Diego	3.212437E6	United States	1.6792529052E10
MRC/UVRI and LSHTM Uganda Research Unit	3.081103E6	United Kingdom	1.92639203E8
Case Western Reserve University	3.020526E6	United States	1.6792529052E10
Beckman Coulter	2.95779E6	United States	1.6792529052E10
Bernhard-Nocht Institut für Tropenmedizin	2.897883E6	Germany	3.323762956E8
Universitätsklinikum Bonn	2.87848E6	Germany	3.323762956E8
Stockholm University	2.834655E6	Sweden	6.954257E6
Universitätsklinikum Hamburg-Eppendorf	2.824249E6	Germany	3.323762956E8
Aarhus University	2.8018700999999996E6	Denmark	1.30287143E7
Ohio State University	2.767547E6	United States	1.6792529052E10
PPD Development LP	2.750095E6	United States	1.6792529052E10
Universitätsklinikum Greifswald	2.72775E6	Germany	3.323762956E8
Louisiana State University HSC Shreveport	2.701947E6	United States	1.6792529052E10
Telethon Kids Institute	2.665E6	Australia	4.3886252E7
Erasmus MC	2.656641E6	United Kingdom	1.92639203E8
Rijksinstitut voor Volksgezondheid en Milieu	2.656641E6	United Kingdom	1.92639203E8
University of Copenhagen	2.5958942E6	Denmark	1.30287143E7
Deutsches Primatenzentrum Göttingen	2.584304E6	Germany	3.323762956E8
Rigshospitalet	2.5361322E6	Denmark	1.30287143E7
University of Michigan, Ann Arbor	2.535549E6	United States	1.6792529052E10
CR2O BV	2.474704E6	Netherlands	2.83365379E7
Vlaams Instituut voor Biotechnologie	2.443E6	Belgium	6.8700195E6
Leiden Universiteit	2.411686E6	Netherlands	2.83365379E7
Ministerie van Volksgezondheid, Welzijn en Sport	2.411686E6	Netherlands	2.83365379E7
Stichting Biomedical Primate Research Center	2.411686E6	Netherlands	2.83365379E7
Universitätsklinikum Tübingen	2.399999E6	Germany	3.323762956E8
Universitätklinikum Heidelberg	2.379016E6	Germany	3.323762956E8
Koninklijke Nederlandse Akademie van Wetenschappen	2.311212E6	Netherlands	2.83365379E7
Stichting Vrije Universiteit Amsterdam	2.311212E6	Netherlands	2.83365379E7
Universiteit Maastricht	2.311212E6	Netherlands	2.83365379E7
Northwestern University	2.265519E6	United States	1.6792529052E10
Lovelace Biomedical & Environmental Research Institute	2.257638E6	United States	1.6792529052E10
European Vaccine Initiative EWIV	2.146543E6	Germany	3.323762956E8
DRK Blutspendedienst Baden Württemberg - Hessen gGmbH	2.120551E6	Germany	3.323762956E8
UMC Utrecht	2.110691E6	Netherlands	2.83365379E7
Pennsylvania State University	2.066524E6	United States	1.6792529052E10
EPFL Lausanne	2.058158E6	Switzerland	1.77839039E7
Klinikums Region Hannover	2.03E6	Germany	3.323762956E8
Centro Nacional de Biotecnología (CNB-CSIC)	2.0260012E6	Spain	2.11116429E7
European & Developing Countries Clinical Trials Partnership	2.0E6	Netherlands	2.83365379E7
Ludwig-Maximilians-Universität München	1.965684E6	Germany	3.323762956E8
The Ottawa Hospital	1.93615E6	Canada	1.15603352E8
Brigham and Women's Hospital	1.899899E6	United States	1.6792529052E10
Oslo Universitetssykehus Rikshospitalet [Oslo University Hospital]	1.897476E6	Norway	3.9159952E6
DIOSynVax	1.891058E6	United Kingdom	1.92639203E8
University Hospital Southampton NHS Foundation Trust	1.891058E6	United Kingdom	1.92639203E8
University of Auckland	1.803293E6	New Zealand	7.864683E6
Marinomed Biotech AG	1.8E6	Austria	4.892706800000001E6
Amager Hospital	1.74083E6	Denmark	1.30287143E7
Sanford Burnham Prebystarian Medical Discovery Institute	1.726211E6	United States	1.6792529052E10
University of Southern Denmark	1.6995445E6	Denmark	1.30287143E7
Ruprecht-Karls-Universität Heidelberg	1.690597E6	Germany	3.323762956E8
Grand River Aseptic Manufacturing, Inc. (“GRAM”)	1.6E6	United States	1.6792529052E10
Lady Davis Institute for Medical Research (Mtl)	1.556077E6	Canada	1.15603352E8
Deutsches Institut für Ernährungsforschung Potsdam Rehbrücke	1.52775E6	Germany	3.323762956E8
Symrise AG	1.52775E6	Germany	3.323762956E8
Fondazione per l'Istituto di Ricerca in Biomedicina	1.435025E6	Switzerland	1.77839039E7
University of Illinois, Chicago	1.401517E6	United States	1.6792529052E10
Mt. Sinai	1.4E6	United States	1.6792529052E10
Current Health	1.399166E6	United States	1.6792529052E10
MRC University of Glasgow Centre for Virus Research	1.363647E6	United Kingdom	1.92639203E8
OraSure Technologies, Inc	1.339527E6	United States	1.6792529052E10
APEPTICO Forschung und Entwicklung GmbH	1.3340508E6	Austria	4.892706800000001E6
Consejo Superior de Investigaciones Científicas (CSIC)	1.2995E6	Spain	2.11116429E7
Hememics	1.276E6	United States	1.6792529052E10
Instituto Catalán de Nanociencia y Nanotecnología (ICN2)	1.2409962E6	Spain	2.11116429E7
Universitat de Barcelona	1.2409962E6	Spain	2.11116429E7
Fraunhofer-Institut für Zelltherapie und Immunologie	1.207743E6	Germany	3.323762956E8
Contextflow	1.2E6	Austria	4.892706800000001E6
Eisbach Bio GmbH	1.2E6	Germany	3.323762956E8
Universitätsklinikum Rostock	1.2E6	Germany	3.323762956E8
Ottawa Heart Institute	1.176019E6	Canada	1.15603352E8
Thrombosis and Atherosclerosis Research Institute (TaARI)	1.173325E6	Canada	1.15603352E8
Nanomix	1.139294E6	United States	1.6792529052E10
Universität Duisburg-Essen	1.1294098E6	Germany	3.323762956E8
Laval + CHU de Quebec	1.121535E6	Canada	1.15603352E8
DiaSorin Inc.	1.111135E6	United States	1.6792529052E10
Friedrich-Alexander-Universität Erlangen-Nürnberg	1.102093E6	Germany	3.323762956E8
University of Melbourne Murdoch Children's Research Institute (MCRI)	1.1E6	Australia	4.3886252E7
Technische Universität München	1.05545E6	Germany	3.323762956E8
University of Basel	1.054372E6	Switzerland	1.77839039E7
Cerus Corporation	1.048348E6	United States	1.6792529052E10
Aix-Marseille Université	1.042531E6	France	2.449031E6
University of Sydney	1.042E6	Australia	4.3886252E7
Universitätklinikum Köln	1.026219E6	Germany	3.323762956E8
Fundación para la investigación de Málaga en Biomedicina y Salud (FIMABIS)	1.024199E6	Spain	2.11116429E7
University of Saskatchewan	1.023093E6	Canada	1.15603352E8
University of Dalhousie	1.0E6	Canada	1.15603352E8
Western University	9.9884E5	Canada	1.15603352E8
Coram/CVS Specialty Infusion Services	9.88E5	United States	1.6792529052E10
O2matic	9.77691E5	Denmark	1.30287143E7
Dartmouth College	9.58576E5	United States	1.6792529052E10
Aarhus University Hospital	9.16101E5	Denmark	1.30287143E7
Universitätsklinikum Ulm	9.09704E5	Germany	3.323762956E8
Aalborg University Hospital	9.04017E5	Denmark	1.30287143E7
Columbia University in the City of New York	8.99977E5	United States	1.6792529052E10
University of Lausanne	8.976E5	Switzerland	1.77839039E7
Universitätsklinikum Jena	8.67063E5	Germany	3.323762956E8
Université de Sherbrooke	8.56E5	Canada	1.15603352E8
Universität Ulm	8.394948E5	Germany	3.323762956E8
Fundació Privada Institut de Recerca de l'Hospital de la Santa Creu i Sant Pau	8.0736E5	Spain	2.11116429E7
ETH Zurich	7.987E5	Switzerland	1.77839039E7
Paul Scherrer Institut	7.9146E5	Switzerland	1.77839039E7
University of South Florida	7.85263E5	United States	1.6792529052E10
Centro de Investigaciones Biológicas Margarita Salas (CIB-CSIC)	7.73445E5	Spain	2.11116429E7
GenMark Diagnostics, Inc.	7.49E5	United States	1.6792529052E10
Vaxess Technologies, Inc.	7.49E5	United States	1.6792529052E10
Gentian AS	7.423756E5	Norway	3.9159952E6
EPF Zurich	7.32228E5	Switzerland	1.77839039E7
Evidation Health	7.2E5	United States	1.6792529052E10
NEC Oncoimmunity AS	7.190835E5	Norway	3.9159952E6
Empatica, Inc.	7.17807E5	United States	1.6792529052E10
European Blood Alliance (EBA)	7.1687E5	Netherlands	2.83365379E7
Stichting Sanquin Bloedvoorziening	7.1687E5	Netherlands	2.83365379E7
"98point6 Inc."	7.0E5	United States	1.6792529052E10
Colorado State University	6.99994E5	United States	1.6792529052E10
Verndari, Inc.	6.98215E5	United States	1.6792529052E10
DiaSorin Molecular LLC	6.97423E5	United States	1.6792529052E10
Tangen Biosciences	6.96E5	United States	1.6792529052E10
NOWDiagnostics Inc.	6.955E5	United States	1.6792529052E10
Snapdragon Chemisty, Inc.	6.91878E5	United States	1.6792529052E10
Instituto de Microelectrónica de Barcelona	6.83E5	Spain	2.11116429E7
Simon Fraser University	6.74006E5	Canada	1.15603352E8
Laboratoire d'électronique et de technologie de l'information (CEA Leti)	6.74E5	France	2.449031E6
Lillebaelt Hospital	6.63485E5	Denmark	1.30287143E7
Universidad de Sevilla	6.585E5	Spain	2.11116429E7
Symphogen	6.580594E5	Denmark	1.30287143E7
Sonica Health	6.5642E5	United States	1.6792529052E10
Fundación de Investigación Biomédica Hospital Puerta de Hierro de Majadahonda	6.40279E5	Spain	2.11116429E7
Quidel Corporation	6.34644E5	United States	1.6792529052E10
MBio Diagnostics, Inc.	6.29595E5	United States	1.6792529052E10
Aalborg University	6.19118E5	Denmark	1.30287143E7
Chelsea and Westminster Hospital, Imperial College London	6.14426E5	United Kingdom	1.92639203E8
Esperovax, Inc.	6.0678E5	United States	1.6792529052E10
Immunexpress Inc.	5.99549E5	United States	1.6792529052E10
Rheinische Friedrich-Wilhelms-Universität Bonn	5.99103E5	Germany	3.323762956E8
Universitätsklinikum Freiburg	5.98984E5	Germany	3.323762956E8
Qiagen, LLC	5.98191E5	United States	1.6792529052E10
VitalConnect	5.92791E5	United States	1.6792529052E10
Hospital for Sick Children (Toronto)	5.83472E5	Canada	1.15603352E8
Odense University Hospital	5.62466E5	Denmark	1.30287143E7
Mesa Tech International	5.6133E5	United States	1.6792529052E10
Age Labs AS	5.570601E5	Norway	3.9159952E6
Instituto de Investigaciones Biomédicas August Pi i Sunyer (IDIBAPS)	5.5E5	Spain	2.11116429E7
Centro de Biología Molecular Severo Ochoa (CSIC-UAM)	5.43E5	Spain	2.11116429E7
VA San Diego Healthcare System	5.40123E5	United States	1.6792529052E10
Hospital Clínic	5.301E5	Spain	2.11116429E7
Instituto de Salud Global de Barcelona	5.301E5	Spain	2.11116429E7
ICON Government and Public Health Solutions	5.28E5	United States	1.6792529052E10
Observatorio Astronómico de Calar Alto (IAA-CSIC)	5.085E5	Spain	2.11116429E7
PKNM Solutions Sarl	5.037769E5	Switzerland	1.77839039E7
Hospices Civils de Lyon - Centre Hospitalier Universitaire	5.0E5	France	2.449031E6
CZ VACCINES, S.A.	4.99807E5	Spain	2.11116429E7
University of Utah	4.94013E5	United States	1.6792529052E10
BIOFABRI SL	4.8642E5	Spain	2.11116429E7
Universidade de Santiago de Compostela	4.76425E5	Spain	2.11116429E7
Fundación para la Investigación Biomédica del Hospital Universitario La Paz	4.742E5	Spain	2.11116429E7
University of Chicago	4.66842E5	United States	1.6792529052E10
NYU School of Medicine	4.66125E5	United States	1.6792529052E10
Manchester University NHS Foundation Trust; The University of Oxford	4.62344E5	United Kingdom	1.92639203E8
Region of Southern Denmark	4.62026E5	Denmark	1.30287143E7
Universitat Pompeu Fabra	4.62E5	Spain	2.11116429E7
Instituto de Biología Molecular de Barcelona (CSIC)	4.53E5	Spain	2.11116429E7
UMC Groningen	4.5E5	Netherlands	2.83365379E7
Universidad de Zaragoza	4.5E5	Spain	2.11116429E7
University of Birmingham	4.5E5	United Kingdom	1.92639203E8
HERSILL, S.L.	4.49197E5	Spain	2.11116429E7
Massey University	4.45792E5	New Zealand	7.864683E6
University of Guelph	4.4125E5	Canada	1.15603352E8
Universitätsklinikum Münster	4.36392E5	Germany	3.323762956E8
University of Connecticut	4.3299E5	United States	1.6792529052E10
Barcelona Supercomputing Center - Centro Nacional de Supercomputación	4.28375E5	Spain	2.11116429E7
Technische Universität Braunschweig	4.278238E5	Germany	3.323762956E8
ATE-Denmark	4.273555E5	Denmark	1.30287143E7
SUNY, University Buffalo	4.26957E5	United States	1.6792529052E10
Technische Universität Dresden	4.1E5	Germany	3.323762956E8
Universitat Rovira i Virgili	4.07E5	Spain	2.11116429E7
BioPorto	4.02918E5	Denmark	1.30287143E7
Bispebjerg Hospital	4.02918E5	Denmark	1.30287143E7
Endothel Pharma	4.02918E5	Denmark	1.30287143E7
Herlev Hospital	4.02918E5	Denmark	1.30287143E7
Nordsjællands Hospital	4.02918E5	Denmark	1.30287143E7
Universität Leipzig	4.01114E5	Germany	3.323762956E8
Universitat de València	3.64119E5	Spain	2.11116429E7
Chelonia SA	3.6275E5	Switzerland	1.77839039E7
SIB Swiss Institute of Bioinformatics	3.6275E5	Switzerland	1.77839039E7
University of Liverpool	3.60242E5	United Kingdom	1.92639203E8
VIRALGEN VECTOR CORE SL	3.58597E5	Spain	2.11116429E7
University of Prince Edward Island (Charlottetown)	3.55982E5	Canada	1.15603352E8
Instituto de Investigaciones Marinas (CSIC)	3.42E5	Spain	2.11116429E7
IMDEA Nanociencia	3.4E5	Spain	2.11116429E7
Medizinische Universität Wien	3.34609E5	Austria	4.892706800000001E6
Bradford Teaching Hospitals	3.21849E5	United Kingdom	1.92639203E8
Griffith University	3.17694E5	Australia	4.3886252E7
University of Sheffield	3.16739E5	United Kingdom	1.92639203E8
Instituto de Química Médica (CSIC)	3.11E5	Spain	2.11116429E7
BCN Peptides S.A.	3.109375E5	Spain	2.11116429E7
Leeds Teaching Hospitals NHS trust	3.10038E5	United Kingdom	1.92639203E8
Gasthuiszusters Antwerpen ziekenhuizen	3.0E5	Belgium	6.8700195E6
ZIekenhuis Oost Limburg	3.0E5	Belgium	6.8700195E6
University Hospital of Geneva	2.99399E5	Switzerland	1.77839039E7
Queen's University Belfast	2.95625E5	United Kingdom	1.92639203E8
Yeshiva University Albert Einstein College of Medicine	2.6844E5	United States	1.6792529052E10
Liita Care Aps	2.54449E5	Denmark	1.30287143E7
Trial Nation	2.54449E5	Denmark	1.30287143E7
Swiss Federal Department of Home Affairs	2.5E5	Switzerland	1.77839039E7
American Type Culture Collection	2.5E5	United States	1.6792529052E10
New York University Langone Health – Vaccine Research Center	2.422E5	United States	1.6792529052E10
Universidad de Navarra	2.4E5	Spain	2.11116429E7
Institute of Tropical Medicine Antwerp	2.3677E5	Belgium	6.8700195E6
University of Otago	2.35746E5	New Zealand	7.864683E6
Institut national de la santé et de la recherche médicale (INSERM)	2.325E5	France	2.449031E6
Cegep de Lévis-Lauzon	2.25E5	Canada	1.15603352E8
Vela Diagnostics USA, Inc.	2.2478E5	United States	1.6792529052E10
Fundación para la Investigación Biomédica del Hospital Clínico San Carlos (IdISSC)	2.23E5	Spain	2.11116429E7
Universität Mannheim	2.2E5	Germany	3.323762956E8
Instituto de Biomedicina de Valencia (CSIC)	2.2E5	Spain	2.11116429E7
University of Exeter	2.16979E5	United Kingdom	1.92639203E8
Uppsala University	2.09819E5	Sweden	6.954257E6
University of Roskilde	2.01459E5	Denmark	1.30287143E7
Leibniz-Institut Deutsche Sammlung von Mikroorganismen und Zellkulturen	2.0E5	Germany	3.323762956E8
TWINCORE Hannover	2.0E5	Germany	3.323762956E8
Universidad Autónoma de Madrid	2.0E5	Spain	2.11116429E7
RWTH Aachen	1.97562E5	Germany	3.323762956E8
Instituto de Investigación Sanitaria (INCLIVA)	1.965E5	Spain	2.11116429E7
Universitat Ramon Llull	1.93E5	Spain	2.11116429E7
KTH Royal Institute of Technology	1.87423E5	Sweden	6.954257E6
Universidad Complutense de Madrid	1.85E5	Spain	2.11116429E7
Institut de Recerca de la Sida IrsiCaixa	1.8E5	Spain	2.11116429E7
Hospital Universitario Fundación Alcorcón	1.75269E5	Spain	2.11116429E7
Lund University	1.64369E5	Sweden	6.954257E6
University of Bristol	1.62989E5	United Kingdom	1.92639203E8
Universidad Pública de Navarra	1.6E5	Spain	2.11116429E7
Instituto de Investigaciones Biomédicas Alberto Sols (CSIC-UAM)	1.57555E5	Spain	2.11116429E7
Cantor BioConnect	1.5113E5	United States	1.6792529052E10
University of Canterbury	1.50352E5	New Zealand	7.864683E6
Lambton College	1.5E5	Canada	1.15603352E8
King's College London	1.40474E5	United Kingdom	1.92639203E8
Instituto de Biología Integrativa de Sistemas (CSIC-Universitat de València)	1.4E5	Spain	2.11116429E7
Universidad de Oviedo	1.4E5	Spain	2.11116429E7
Institut de Recerca Biomèdica de Lleida (IRBLleida)	1.335E5	Spain	2.11116429E7
Instituto de Física Corpuscular (IFIC-CSIC)	1.3E5	Spain	2.11116429E7
Essencius	1.29893E5	Denmark	1.30287143E7
Flairmo	1.29893E5	Denmark	1.30287143E7
Inventors' way	1.29893E5	Denmark	1.30287143E7
Mermaid care	1.29893E5	Denmark	1.30287143E7
Centro de Investigación Biomédica en Red M.P. (CIBER).	1.25E5	Spain	2.11116429E7
University of Warwick	1.21566E5	United Kingdom	1.92639203E8
PREMO S.A.U.	1.20021E5	Spain	2.11116429E7
Instituto Nacional de Investigación y Tecnología Agraria y Alimentaria (INIA)	1.2E5	Spain	2.11116429E7
Gold Coast University Hospital	1.17997E5	Australia	4.3886252E7
Wageningen Universiteit	1.167725E5	Netherlands	2.83365379E7
Fundación Miguel Servet Navarrabiomed	1.15E5	Spain	2.11116429E7
Fundación para la Formación e Investigación Sanitarias de la Región de Murcia (FFIS)	1.15E5	Spain	2.11116429E7
Universitat Politècnica de Valencia	1.15E5	Spain	2.11116429E7
University of Plymouth	1.11335E5	United Kingdom	1.92639203E8
Universidad de Granada	1.1E5	Spain	2.11116429E7
Universidade de Vigo	1.1E5	Spain	2.11116429E7
Fundación Instituto de Investigación Marqués de Valdecilla (IDIVAL)	1.015E5	Spain	2.11116429E7
Universitätsklinikum Leipzig	1.0E5	Germany	3.323762956E8
Fundación para la gestión de la Investigación Biomédica de Cádiz	1.0E5	Spain	2.11116429E7
Instituto de Investigación e Innovación en Ciencias Biomédicas de la Provincia de Cádiz (INIBICA)	1.0E5	Spain	2.11116429E7
Instituto de Micro y Nanotecnología (CSIC)	1.0E5	Spain	2.11116429E7
Instituto de Recursos Naturales y Agrobiología de Salamanca (IRNASA, CSIC)	1.0E5	Spain	2.11116429E7
Universidad de Cádiz	1.0E5	Spain	2.11116429E7
Centro Nacional de Investigaciones Oncológicas (CNIO)	9.7E4	Spain	2.11116429E7
University of Gothenburg	9.3711E4	Sweden	6.954257E6
Hospital Clínico Universitario de Valladolid	9.1E4	Spain	2.11116429E7
Instituto de Ciencia y Tecnología de Polímeros (CSIC)	9.0E4	Spain	2.11116429E7
Instituto de Agroquímica y Tecnología de los Alimentos (CSIC)	8.8388E4	Spain	2.11116429E7
University of Kentucky	8.1406E4	United States	1.6792529052E10
Instituto de Tecnología Química (CSIC-Universitat Politècnica de València)	8.1E4	Spain	2.11116429E7
Max-Delbrück-Centrum für Molekulare Medizin Berlin	8.0699E4	Germany	3.323762956E8
Universitat de Girona	7.9737E4	Spain	2.11116429E7
University of Leeds	7.6139E4	United Kingdom	1.92639203E8
ExVivo Labs	7.5E4	Canada	1.15603352E8
Fleming College	7.5E4	Canada	1.15603352E8
Mediphage Bioceuticals Inc.	7.5E4	Canada	1.15603352E8
Seneca College	7.5E4	Canada	1.15603352E8
Suncor Energy Inc., Western Ontario	7.5E4	Canada	1.15603352E8
Fundación Instituto de Investigación Sanitaria Illes Balears	7.4E4	Spain	2.11116429E7
Instituto Aragonés de Ciencias de la Salud (IACS)	7.15E4	Spain	2.11116429E7
Fundación para la Investigación e Innovación Biosanitaria en Asturias (FINBA)	7.0465E4	Spain	2.11116429E7
Universitat Internacional de Catalunya	7.0E4	Spain	2.11116429E7
Applied Research Associates, Inc.	6.5207E4	United States	1.6792529052E10
Instituto de Química Orgánica General (CSIC)	6.2E4	Spain	2.11116429E7
Philips-Universität Marburg	5.9966E4	Germany	3.323762956E8
Universidad de A Coruña	5.925E4	Spain	2.11116429E7
Fundación Pública Andaluza Progreso y Salud	5.7E4	Spain	2.11116429E7
Instituto de Biomedicina de Sevilla	5.7E4	Spain	2.11116429E7
Institute of Molecular Biotechnology (IMBA)	5.0E4	Austria	4.892706800000001E6
Research Institute of Molecular Pathology (IMP)	5.0E4	Austria	4.892706800000001E6
St. Anna Kinderkrebsforschung GmbH Children's Cancer Research Institute	5.0E4	Austria	4.892706800000001E6
Friedrich-Loeffler-Institut	5.0E4	Germany	3.323762956E8
UP Transfer GmbH an der Universität Potsdam	5.0E4	Germany	3.323762956E8
Veterinärmedizinische Universität Wien	4.95E4	Austria	4.892706800000001E6
Fundación Canaria Instituto de Investigación Sanitaria de Canarias (FIISC)	4.95E4	Spain	2.11116429E7
Fundación para el Fomento de la Investigación Sanitaria y Biomédica de la Comunitat Valenciana (FISABIO)	4.86E4	Spain	2.11116429E7
Instituto de Biomedicina y Biotecnología de Cantabria (CSIC, Gobierno Regional de Cantabria, Universidad de Cantabria)	4.6E4	Spain	2.11116429E7
Aston University	4.3067E4	United Kingdom	1.92639203E8
Sunshine Coast University Hospital	3.7431E4	Australia	4.3886252E7
Stanford University	3.5292E4	United States	1.6792529052E10
Centro de Investigación en Nanomateriales y Nanotecnología (CINN-CSIC)	3.08E4	Spain	2.11116429E7
Instituto de Diagnóstico Ambiental y Estudios del Agua (CSIC)	3.0E4	Spain	2.11116429E7
Fassisi Gesellschaft für Veterinärdiagnostik und Umweltanalysen mbH	2.9517E4	Germany	3.323762956E8
Universität für Bodenkultur Wien	2.4547E4	Austria	4.892706800000001E6
Universitat Politècnica de Catalunya	1.46E4	Spain	2.11116429E7
Veterans Medical Research Foundation of San Diego	6.6E3	United States	1.6792529052E10
Australian National University	0.0E0	Australia	4.3886252E7
AIT Angewandte Informationstechnik	0.0E0	Austria	4.892706800000001E6
AOP Orphan Pharmaceuticals Aktiengesellschaft	0.0E0	Austria	4.892706800000001E6
APEIRON Biologics AG	0.0E0	Austria	4.892706800000001E6
Attoquant Diagnostics GmbH	0.0E0	Austria	4.892706800000001E6
Baxalta Innovations GmbH (Takeda)	0.0E0	Austria	4.892706800000001E6
Bender MedSystems GmbH	0.0E0	Austria	4.892706800000001E6
BioTreaT GmbH	0.0E0	Austria	4.892706800000001E6
Bloom Diagnostics GmbH	0.0E0	Austria	4.892706800000001E6
Cube Dx GmbH	0.0E0	Austria	4.892706800000001E6
Cyprumed GmbH	0.0E0	Austria	4.892706800000001E6
Delta4 GmbH	0.0E0	Austria	4.892706800000001E6
Dr. Gernot Walder GmbH	0.0E0	Austria	4.892706800000001E6
Genius5-Instruments GmbH	0.0E0	Austria	4.892706800000001E6
Genspeed Biotech GmbH	0.0E0	Austria	4.892706800000001E6
Hospital Hietzing	0.0E0	Austria	4.892706800000001E6
ITK - Zentrum für klinische Immunologie GmbH	0.0E0	Austria	4.892706800000001E6
Kaiser Franz Josef Hospital	0.0E0	Austria	4.892706800000001E6
Labdia Labordiagnostik	0.0E0	Austria	4.892706800000001E6
Nabriva Therapeutics GMBH	0.0E0	Austria	4.892706800000001E6
Novogenia GmbH	0.0E0	Austria	4.892706800000001E6
Otto Wagner Hospital	0.0E0	Austria	4.892706800000001E6
PRODUKEM-Molekulares Design GmbH	0.0E0	Austria	4.892706800000001E6
Panoptes Pharma Ges.m.b.H.	0.0E0	Austria	4.892706800000001E6
Pharmgenetix GmbH	0.0E0	Austria	4.892706800000001E6
Prospective Instruments LK OG	0.0E0	Austria	4.892706800000001E6
Qualizyme Diagnostics GmbH & Co KG	0.0E0	Austria	4.892706800000001E6
SCARLETRED Holding GmbH	0.0E0	Austria	4.892706800000001E6
SMZ-Ost Donauspital	0.0E0	Austria	4.892706800000001E6
SteadySense GmbH	0.0E0	Austria	4.892706800000001E6
Themis Bioscience GmbH	0.0E0	Austria	4.892706800000001E6
VIVIT Vorarlberg Institute for Vascular Investigation and Treatment	0.0E0	Austria	4.892706800000001E6
Viravaxx AG	0.0E0	Austria	4.892706800000001E6
Wilhelminenspital Vienna	0.0E0	Austria	4.892706800000001E6
University of Waterloo	0.0E0	Canada	1.15603352E8
Université de Montréal	0.0E0	Canada	1.15603352E8
Frederiksberg Hospital	0.0E0	Denmark	1.30287143E7
UNION therapeutics	0.0E0	Denmark	1.30287143E7
Assistance publique - Hôpitaux de Marseille (AP-HM)	0.0E0	France	2.449031E6
Assistance publique - Hôpitaux de Paris (AP-HP)	0.0E0	France	2.449031E6
Centre Hospitalier Régional et Universitaire de Tours	0.0E0	France	2.449031E6
Centre Hospitalier Universitaire de Bordeaux	0.0E0	France	2.449031E6
Centre Hospitalier Universitaire de Lille	0.0E0	France	2.449031E6
Centre Hospitalier Universitaire de Nantes	0.0E0	France	2.449031E6
Centre Hospitalier Universitaire de Rouen	0.0E0	France	2.449031E6
Centre Hospitalier Universitaire de Saint-Étienne	0.0E0	France	2.449031E6
Centre International de Recherche en Infectiologie (CIRI)	0.0E0	France	2.449031E6
Centre National de la Recherche Scientifique (CNRS)	0.0E0	France	2.449031E6
Centre d'Immunologie Marseille-Luminy	0.0E0	France	2.449031E6
Centre hospitalier universitaire de Montpellier	0.0E0	France	2.449031E6
European Synchrotron Radiation Facility	0.0E0	France	2.449031E6
IHU Méditerranée Infection	0.0E0	France	2.449031E6
INRAE, Université Paris Saclay	0.0E0	France	2.449031E6
Imagine - Institut des Maladies Génétiques	0.0E0	France	2.449031E6
Infection, Antimicrobiens, Modélisation, Evolution (IAME) UMR 1137	0.0E0	France	2.449031E6
Institut Cochin	0.0E0	France	2.449031E6
Institut NeuroMyoGène	0.0E0	France	2.449031E6
Institut Pasteur	0.0E0	France	2.449031E6
Institut Pasteur de Lille	0.0E0	France	2.449031E6
Institut de Biologie et Chimie des Protéines (UMR 5086)	0.0E0	France	2.449031E6
Institut de recherche pour le développement (IRD)	0.0E0	France	2.449031E6
L'institut du thorax	0.0E0	France	2.449031E6
Laboratoire Architecture et Fonction des Macromolécules Biologiques (AFMB)	0.0E0	France	2.449031E6
Laboratoire Immunité innée – U1223	0.0E0	France	2.449031E6
Laboratoire de Biochimie, École Supérieure de Physique et de Chimie Industrielles	0.0E0	France	2.449031E6
Les Hôpitaux Universitaires de Strasbourg	0.0E0	France	2.449031E6
Molecular Microbiology and Structural Biochemistry (MMSB)	0.0E0	France	2.449031E6
Sorbonne Université	0.0E0	France	2.449031E6
Spectrométrie de Masse pour la Biologie (UTechS MSBio)	0.0E0	France	2.449031E6
T3S Toxicité Environnementale, Cibles Thérapeutiques, Signalisation Cellulaire	0.0E0	France	2.449031E6
Unité 976 HIPI « Immunologie Humaine, Pathophysiologie, Immunothérapie »	0.0E0	France	2.449031E6
Université Claude Bernard Lyon 1	0.0E0	France	2.449031E6
Université Jean Monnet	0.0E0	France	2.449031E6
Université Paris-Saclay	0.0E0	France	2.449031E6
Université Sorbonne Paris Nord	0.0E0	France	2.449031E6
Université de Paris	0.0E0	France	2.449031E6
Vignuzzi Lab	0.0E0	France	2.449031E6
École Normale Supérieure	0.0E0	France	2.449031E6
École des hautes études en santé publique (EHESP)	0.0E0	France	2.449031E6
Établissement français du sang (EFS)	0.0E0	France	2.449031E6
Berlin Institute of Health	0.0E0	Germany	3.323762956E8
Deutsches Elektronen-Synchrotron DESY	0.0E0	Germany	3.323762956E8
Freie Universität Berlin	0.0E0	Germany	3.323762956E8
GSI Helmholtz Zentrum für Schwerionenforschung	0.0E0	Germany	3.323762956E8
Helmholtz-Institut für RNA-basierte Infektionsforschung	0.0E0	Germany	3.323762956E8
IDT Biologika GmbH	0.0E0	Germany	3.323762956E8
Kepler Universitätsklinikum Linz	0.0E0	Germany	3.323762956E8
Klinikum Ibbenbüren	0.0E0	Germany	3.323762956E8
Klinikum Ludwigsburg	0.0E0	Germany	3.323762956E8
Klinikum der Landeshauptstadt Stuttgart gKAöR	0.0E0	Germany	3.323762956E8
Leibniz-Forschungsinstitut für Molekulare Pharmakologie	0.0E0	Germany	3.323762956E8
LifeTime consortium	0.0E0	Germany	3.323762956E8
M3i GmbH	0.0E0	Germany	3.323762956E8
Martin-Luther-Universität Halle-Wittenberg	0.0E0	Germany	3.323762956E8
Mikrogen Diagnostik	0.0E0	Germany	3.323762956E8
Paul Ehrlich Institute	0.0E0	Germany	3.323762956E8
Robert Koch-Institut	0.0E0	Germany	3.323762956E8
Robert-Bosch-Krankenhaus GmbH	0.0E0	Germany	3.323762956E8
SLK-Kliniken Heilbronn	0.0E0	Germany	3.323762956E8
Schwarzwald-Baar Klinikum Villingen-Schwenningen GmbH	0.0E0	Germany	3.323762956E8
Selfdiagnostics Deutschland GmbH	0.0E0	Germany	3.323762956E8
Universitätsklinikum Frankfurt	0.0E0	Germany	3.323762956E8
Universitätsklinikum Schleswig-Holstein, Campus Kiel	0.0E0	Germany	3.323762956E8
Universitätsklinikum Würzburg	0.0E0	Germany	3.323762956E8
Universitätsklinikum an der Ludwig-Maximilians-Universität München	0.0E0	Germany	3.323762956E8
Universitätsklinikum des Saarlandes	0.0E0	Germany	3.323762956E8
Vivantes Humboldt-Klinikum	0.0E0	Germany	3.323762956E8
Vivantes Klinikum-Neukölln	0.0E0	Germany	3.323762956E8
deepc GmbH	0.0E0	Germany	3.323762956E8
Dong-A University	0.0E0	Korea, Democratic People's Republic of	1.607E9
Gyeongsang National University	0.0E0	Korea, Democratic People's Republic of	1.607E9
Seoul National University	0.0E0	Korea, Democratic People's Republic of	1.607E9
Yonsei University	0.0E0	Korea, Democratic People's Republic of	1.607E9
Dong-A University	0.0E0	Korea, Republic of	1.607E9
Gyeongsang National University	0.0E0	Korea, Republic of	1.607E9
Seoul National University	0.0E0	Korea, Republic of	1.607E9
Yonsei University	0.0E0	Korea, Republic of	1.607E9
DSM Netherlands	0.0E0	Netherlands	2.83365379E7
GGD Amsterdam	0.0E0	Netherlands	2.83365379E7
Julius Clinical Research B.V.	0.0E0	Netherlands	2.83365379E7
Maastricht UMC	0.0E0	Netherlands	2.83365379E7
Nederlandse Organisatie voor Toegepast-Natuurwetenschappelijk Onderzoek (TNO)	0.0E0	Netherlands	2.83365379E7
Netherlands Heart Institute	0.0E0	Netherlands	2.83365379E7
Radboud Universiteit Nijmegen	0.0E0	Netherlands	2.83365379E7
Radboudumc	0.0E0	Netherlands	2.83365379E7
Spaarne Gasthuis	0.0E0	Netherlands	2.83365379E7
Universiteit Twente	0.0E0	Netherlands	2.83365379E7
Akershus universitetssykehus [Akershus University Hospital]	0.0E0	Norway	3.9159952E6
Norwegian University of Science and Technology	0.0E0	Norway	3.9159952E6
Fundació d'Investigació en Ciències de la Salut Institut Germans Trias i Pujol (IGTP)	0.0E0	Spain	2.11116429E7
Hospital Universitari Arnau de Vilanova	0.0E0	Spain	2.11116429E7
Hospital Universitari de Bellvitge	0.0E0	Spain	2.11116429E7
Institut Hospital del Mar d'Investigacions Mèdiques (IMIM)	0.0E0	Spain	2.11116429E7
Institut Universitari de Recerca en Atenció Primària Jordi Gol (IDIAPJGol)	0.0E0	Spain	2.11116429E7
Institut d'Investigació Biomèdica de Bellvitge (IDIBELL)	0.0E0	Spain	2.11116429E7
REMAb Therapeutics	0.0E0	Spain	2.11116429E7
Universitat de Lleida	0.0E0	Spain	2.11116429E7
Vall d'Hebron Institut de Recerca (VHIR)	0.0E0	Spain	2.11116429E7
Vall d'Hebron Institut d’Oncologia (VHIO)	0.0E0	Spain	2.11116429E7
Umeå University	0.0E0	Sweden	6.954257E6
Engineering and Physical Sciences Research Council	0.0E0	United Kingdom	1.92639203E8
MRC	0.0E0	United Kingdom	1.92639203E8
MRC Biostatistics Unit at the University of Cambridge	0.0E0	United Kingdom	1.92639203E8
MRC Cancer Unit at the University of Cambridge	0.0E0	United Kingdom	1.92639203E8
MRC Population Health Research Unit at the University of Oxford	0.0E0	United Kingdom	1.92639203E8
MRC Toxicology Unit at the University of Cambridge	0.0E0	United Kingdom	1.92639203E8
Wellcome - MRC Cambridge Stem Cell Institute	0.0E0	United Kingdom	1.92639203E8
CSL Behring	0.0E0	United States	1.6792529052E10
Georgetown University	0.0E0	United States	1.6792529052E10
Hoffman-LaRoche	0.0E0	United States	1.6792529052E10
Humanigen	0.0E0	United States	1.6792529052E10
Miami Veteran Affairs Healthcare System	0.0E0	United States	1.6792529052E10
National Cancer Institute (NCI)	0.0E0	United States	1.6792529052E10
Sepsis Alliance	0.0E0	United States	1.6792529052E10
Texas A&M University, M.D. Anderson Cancer Center, Baylor College of Medicine, Cedars-Sinai Medical Center, Harvard University	0.0E0	United States	1.6792529052E10
UC Davis	0.0E0	United States	1.6792529052E10
UC San Francisco	0.0E0	United States	1.6792529052E10
